{
  "name": "parent",
  "tasks": {
    "workflow_start": {
      "name": "workflow_start",
      "groups": [],
      "nodeLocation": {
        "x": 0,
        "y": -500
      },
      "x": 0,
      "y": 0.5
    },
    "workflow_end": {
      "name": "workflow_end",
      "groups": [],
      "nodeLocation": {
        "x": 0,
        "y": 500
      },
      "x": 1,
      "y": 0.5
    },
    "ce2a": {
      "name": "getV4Groups",
      "canvasName": "getV4Groups",
      "summary": "Get a groups list",
      "description": "Get a groups list",
      "location": "Adapter",
      "locationType": "Gitlab",
      "app": "Gitlab",
      "type": "automatic",
      "displayName": "Gitlab",
      "variables": {
        "incoming": {
          "statistics": "",
          "allAvailable": "",
          "search": "",
          "orderBy": "",
          "sort": "",
          "skipGroups": "",
          "withCustomAttributes": "",
          "owned": "",
          "minAccessLevel": "",
          "adapter_id": "Gitlab"
        },
        "outgoing": {
          "result": ""
        }
      },
      "actor": "Pronghorn",
      "groups": [],
      "nodeLocation": {
        "x": 12,
        "y": -324
      }
    }
  },
  "transitions": {
    "workflow_start": {
      "ce2a": {
        "state": "success",
        "type": "standard"
      }
    },
    "workflow_end": {},
    "ce2a": {
      "workflow_end": {
        "state": "success",
        "type": "standard"
      }
    }
  },
  "inputSchema": {
    "type": "object",
    "properties": {}
  },
  "outputSchema": {
    "type": "object",
    "properties": {
      "_id": {
        "type": "string",
        "pattern": "^[0-9a-f]{24}$"
      },
      "initiator": {
        "type": "string"
      }
    }
  },
  "canvasVersion": 3,
  "type": "automation",
  "font_size": 12,
  "errorHandler": null,
  "preAutomationTime": 0,
  "sla": 0,
  "last_updated": "2024-03-14T14:58:10.216Z",
  "lastUpdatedVersion": "4.15.0-2023.1.168.0",
  "created": "2024-01-26T14:08:04.834Z",
  "created_by": {
    "provenance": "local_aaa",
    "username": "admin@pronghorn",
    "firstname": "admin",
    "inactive": false
  },
  "createdVersion": "5.46.0-2023.1.41.0",
  "last_updated_by": {
    "provenance": "Service Account",
    "username": "test1",
    "firstname": "test1",
    "inactive": false,
    "isServiceAccount": true
  },
  "tags": [],
  "groups": [],
  "migrationVersion": 2
}